<?xml version="1.0" encoding="UTF-8" standalone="no"?>
<svg width="29px" height="21px" viewBox="0 0 29 21" version="1.1" xmlns="http://www.w3.org/2000/svg" xmlns:xlink="http://www.w3.org/1999/xlink" xmlns:sketch="http://www.bohemiancoding.com/sketch/ns">
    <!-- Generator: Sketch 3.3 (11970) - http://www.bohemiancoding.com/sketch -->
    <title>GB</title>
    <desc>Created with Sketch.</desc>
    <defs>
        <rect id="path-1" x="0" y="0" width="29" height="21" rx="2"></rect>
        <rect id="path-3" x="0.69047619" y="0.7" width="27.6190476" height="19.6" rx="1"></rect>
    </defs>
    <g id="Home" stroke="none" stroke-width="1" fill="none" fill-rule="evenodd" sketch:type="MSPage">
        <g id="Desktop-HD" sketch:type="MSArtboardGroup" transform="translate(-1323.000000, -29.000000)">
            <g id="GB" sketch:type="MSLayerGroup" transform="translate(1323.000000, 29.000000)">
                <mask id="mask-2" sketch:name="background" fill="white">
                    <use xlink:href="#path-1"></use>
                </mask>
                <use id="background" fill="#22438B" sketch:type="MSShapeGroup" xlink:href="#path-1"></use>
                <path d="M4.1428571,1.39999995 L1.34454053,1.43691405 L1.38095241,4.2 L24.8319556,19.6393183 L27.6449793,19.5874953 L27.5938616,16.8393191 L4.1428571,1.39999995 L4.1428571,1.39999995 Z" id="band" fill="#FFFFFF" sketch:type="MSShapeGroup" mask="url(#mask-2)"></path>
                <path d="M2.76190479,1.40000002 L1.38095233,2.79999992 L26.2380944,19.5999994 L27.6190485,18.2000006 L2.76190479,1.40000002 L2.76190479,1.40000002 Z" id="band" fill="#C7152A" sketch:type="MSShapeGroup" mask="url(#mask-2)"></path>
                <path d="M24.8571428,1.40000002 L27.6190477,1.39999999 L27.6190478,4.19999995 C27.6190478,4.19999995 11.3937721,14.5546972 4.16804321,19.6393191 C4.08019458,19.7011366 1.40898797,19.6437683 1.40898797,19.6437683 L1.19424768,16.9788205 L24.8571428,1.40000002 L24.8571428,1.40000002 Z" id="band" fill="#FFFFFF" sketch:type="MSShapeGroup" mask="url(#mask-2)"></path>
                <path d="M26.297275,1.36103812 L27.6190476,2.79999999 L2.76190434,19.6000003 L1.38095239,18.2 L26.297275,1.36103812 L26.297275,1.36103812 Z" id="band" fill="#C7152A" sketch:type="MSShapeGroup" mask="url(#mask-2)"></path>
                <path d="M11.047619,1.4 L17.952381,1.4 L17.952381,7 L27.6190476,7 L27.6190476,14 L17.952381,14 L17.952381,19.6 L11.047619,19.6 L11.047619,14 L1.38095238,14 L1.38095238,7 L11.047619,7 L11.047619,1.4 Z" id="cross" fill="#FFFFFF" sketch:type="MSShapeGroup" mask="url(#mask-2)"></path>
                <path d="M12.4285714,1.4 L16.5714286,1.4 L16.5714286,8.4 L27.6190476,8.4 L27.6190476,12.6 L16.5714286,12.6 L16.5714286,19.6 L12.4285714,19.6 L12.4285714,12.6 L1.38095238,12.6 L1.38095238,8.4 L12.4285714,8.4 L12.4285714,1.4 Z" id="cross" fill="#C7152A" sketch:type="MSShapeGroup" mask="url(#mask-2)"></path>
                <mask id="mask-4" sketch:name="overlay" fill="white">
                    <use xlink:href="#path-3"></use>
                </mask>
                <use id="overlay" stroke-opacity="0.156646286" stroke="#2F343A" sketch:type="MSShapeGroup" xlink:href="#path-3"></use>
            </g>
        </g>
    </g>
</svg>